# A tibble: 4,655 x 6
    year village household plotarea gender output
   <dbl>   <dbl>     <dbl>    <dbl>  <dbl>  <dbl>
 1  2011    3.00      3.00   1.54        0    0  
 2  2012    2.00     24.0    0.0479      0   41.2
 3  2011    4.00      9.00   0.146       0   29.5
 4  2011    6.00     28.0    0.0365      0   32.8
 5  2012    5.00     22.0    0.0128      0  197  
 6  2011    2.00     24.0    0.141       0   35.6
 7  2012    1.00     20.0    0.0419      0   90.2
 8  2011    5.00      9.00   0.0756      0   40.0
 9  2011    5.00     15.0    0.186       0   41.4
10  2010    4.00      8.00   0.152       0   41.8
# ... with 4,645 more rows
…
	Welch Two Sample t-test

data:  male.yields and female.yields
t = -5.5162, df = 1850.8, p-value = 3.951e-08
alternative hypothesis: true difference in means is not equal to 0
95 percent confidence interval:
 -10045.325  -4775.818
sample estimates:
mean of x mean of y 
 2582.841  9993.413 

[1] 2995
[1] 1660
# A tibble: 950 x 7
   gender      age salary hours weeks  wage  educ
   <dbl+lbl> <dbl>  <dbl> <dbl> <dbl> <dbl> <dbl>
 1 0          15.0    200 15.0   6.00  2.22  7.00
 2 0          15.0    100  5.00  6.00  3.33  7.00
 3 0          16.0    200 15.0   4.00  3.33 12.0 
 4 0          16.0   2500 25.0  10.0  10.0   8.00
 5 1          16.0   2000 30.0   8.00  8.33  9.00
 6 0          16.0    100  2.00  6.00  8.33  8.00
 7 0          16.0   1000 15.0  25.0   2.67  7.00
 8 0          16.0    140 15.0   8.00  1.17  9.00
 9 1          17.0    874 12.0   8.00  9.10 10.0 
10 1          17.0   5200 20.0  52.0   5.00 10.0 
# ... with 940 more rows
…
